^C:\Users\小國\Documents\2016後期製作チームC\SimplSample015\DxShared\Shaders\PSPCSprite.hlsl
^C:\Users\小國\Documents\2016後期製作チームC\SimplSample015\DxShared\Shaders\PSPCStatic.hlsl
^C:\Users\小國\Documents\2016後期製作チームC\SimplSample015\DxShared\Shaders\PSPCTSprite.hlsl
^C:\Users\小國\Documents\2016後期製作チームC\SimplSample015\DxShared\Shaders\PSPCTStatic.hlsl
^C:\Users\小國\Documents\2016後期製作チームC\SimplSample015\DxShared\Shaders\PSPNTStatic.hlsl
^C:\Users\小國\Documents\2016後期製作チームC\SimplSample015\DxShared\Shaders\PSPNTStaticShadow.hlsl
^C:\Users\小國\Documents\2016後期製作チームC\SimplSample015\DxShared\Shaders\PSPNTStaticShadow2.hlsl
^C:\Users\小國\Documents\2016後期製作チームC\SimplSample015\DxShared\Shaders\PSPTSprite.hlsl
^C:\Users\小國\Documents\2016後期製作チームC\SimplSample015\DxShared\Shaders\VSPCSprite.hlsl
^C:\Users\小國\Documents\2016後期製作チームC\SimplSample015\DxShared\Shaders\VSPCStatic.hlsl
^C:\Users\小國\Documents\2016後期製作チームC\SimplSample015\DxShared\Shaders\VSPCTInstance.hlsl
^C:\Users\小國\Documents\2016後期製作チームC\SimplSample015\DxShared\Shaders\VSPCTSprite.hlsl
^C:\Users\小國\Documents\2016後期製作チームC\SimplSample015\DxShared\Shaders\VSPCTStatic.hlsl
^C:\Users\小國\Documents\2016後期製作チームC\SimplSample015\DxShared\Shaders\VSPNTStatic.hlsl
^C:\Users\小國\Documents\2016後期製作チームC\SimplSample015\DxShared\Shaders\VSPNTStaticShadow.hlsl
^C:\Users\小國\Documents\2016後期製作チームC\SimplSample015\DxShared\Shaders\VSPTSprite.hlsl
^C:\Users\小國\Documents\2016後期製作チームC\SimplSample015\DxShared\Shaders\VSShadowmap.hlsl
^C:\Users\小國\Documents\2016後期製作チームC\SimplSample015\DxShared\Shaders\VSShadowmapBone.hlsl
C:\Users\小國\Documents\2016後期製作チームC\SimplSample015\media\Shaders\PSPCSprite.cso
C:\Users\小國\Documents\2016後期製作チームC\SimplSample015\media\Shaders\PSPCStatic.cso
C:\Users\小國\Documents\2016後期製作チームC\SimplSample015\media\Shaders\PSPCTSprite.cso
C:\Users\小國\Documents\2016後期製作チームC\SimplSample015\media\Shaders\PSPCTStatic.cso
C:\Users\小國\Documents\2016後期製作チームC\SimplSample015\media\Shaders\PSPNTStatic.cso
C:\Users\小國\Documents\2016後期製作チームC\SimplSample015\media\Shaders\PSPNTStaticShadow.cso
C:\Users\小國\Documents\2016後期製作チームC\SimplSample015\media\Shaders\PSPNTStaticShadow2.cso
C:\Users\小國\Documents\2016後期製作チームC\SimplSample015\media\Shaders\PSPTSprite.cso
C:\Users\小國\Documents\2016後期製作チームC\SimplSample015\media\Shaders\VSPCSprite.cso
C:\Users\小國\Documents\2016後期製作チームC\SimplSample015\media\Shaders\VSPCStatic.cso
C:\Users\小國\Documents\2016後期製作チームC\SimplSample015\media\Shaders\VSPCTInstance.cso
C:\Users\小國\Documents\2016後期製作チームC\SimplSample015\media\Shaders\VSPCTSprite.cso
C:\Users\小國\Documents\2016後期製作チームC\SimplSample015\media\Shaders\VSPCTStatic.cso
C:\Users\小國\Documents\2016後期製作チームC\SimplSample015\media\Shaders\VSPNTStatic.cso
C:\Users\小國\Documents\2016後期製作チームC\SimplSample015\media\Shaders\VSPNTStaticShadow.cso
C:\Users\小國\Documents\2016後期製作チームC\SimplSample015\media\Shaders\VSPTSprite.cso
C:\Users\小國\Documents\2016後期製作チームC\SimplSample015\media\Shaders\VSShadowmap.cso
C:\Users\小國\Documents\2016後期製作チームC\SimplSample015\media\Shaders\VSShadowmapBone.cso
^C:\Users\小國\Documents\2016後期製作チームC\SimplSample015\DxShared\Shaders\PSPCSprite.hlsl
^C:\Users\小國\Documents\2016後期製作チームC\SimplSample015\DxShared\Shaders\PSPCStatic.hlsl
^C:\Users\小國\Documents\2016後期製作チームC\SimplSample015\DxShared\Shaders\PSPCTSprite.hlsl
^C:\Users\小國\Documents\2016後期製作チームC\SimplSample015\DxShared\Shaders\PSPCTStatic.hlsl
^C:\Users\小國\Documents\2016後期製作チームC\SimplSample015\DxShared\Shaders\PSPNTStatic.hlsl
^C:\Users\小國\Documents\2016後期製作チームC\SimplSample015\DxShared\Shaders\PSPNTStaticShadow.hlsl
^C:\Users\小國\Documents\2016後期製作チームC\SimplSample015\DxShared\Shaders\PSPNTStaticShadow2.hlsl
^C:\Users\小國\Documents\2016後期製作チームC\SimplSample015\DxShared\Shaders\PSPTSprite.hlsl
^C:\Users\小國\Documents\2016後期製作チームC\SimplSample015\DxShared\Shaders\VSPCSprite.hlsl
^C:\Users\小國\Documents\2016後期製作チームC\SimplSample015\DxShared\Shaders\VSPCStatic.hlsl
^C:\Users\小國\Documents\2016後期製作チームC\SimplSample015\DxShared\Shaders\VSPCTInstance.hlsl
^C:\Users\小國\Documents\2016後期製作チームC\SimplSample015\DxShared\Shaders\VSPCTSprite.hlsl
^C:\Users\小國\Documents\2016後期製作チームC\SimplSample015\DxShared\Shaders\VSPCTStatic.hlsl
^C:\Users\小國\Documents\2016後期製作チームC\SimplSample015\DxShared\Shaders\VSPNTStatic.hlsl
^C:\Users\小國\Documents\2016後期製作チームC\SimplSample015\DxShared\Shaders\VSPNTStaticShadow.hlsl
^C:\Users\小國\Documents\2016後期製作チームC\SimplSample015\DxShared\Shaders\VSPTSprite.hlsl
^C:\Users\小國\Documents\2016後期製作チームC\SimplSample015\DxShared\Shaders\VSShadowmap.hlsl
^C:\Users\小國\Documents\2016後期製作チームC\SimplSample015\DxShared\Shaders\VSShadowmapBone.hlsl
C:\Users\小國\Documents\2016後期製作チームC\SimplSample015\media\Shaders\PSPCSprite.cso
C:\Users\小國\Documents\2016後期製作チームC\SimplSample015\media\Shaders\PSPCStatic.cso
C:\Users\小國\Documents\2016後期製作チームC\SimplSample015\media\Shaders\PSPCTSprite.cso
C:\Users\小國\Documents\2016後期製作チームC\SimplSample015\media\Shaders\PSPCTStatic.cso
C:\Users\小國\Documents\2016後期製作チームC\SimplSample015\media\Shaders\PSPNTStatic.cso
C:\Users\小國\Documents\2016後期製作チームC\SimplSample015\media\Shaders\PSPNTStaticShadow.cso
C:\Users\小國\Documents\2016後期製作チームC\SimplSample015\media\Shaders\PSPNTStaticShadow2.cso
C:\Users\小國\Documents\2016後期製作チームC\SimplSample015\media\Shaders\PSPTSprite.cso
C:\Users\小國\Documents\2016後期製作チームC\SimplSample015\media\Shaders\VSPCSprite.cso
C:\Users\小國\Documents\2016後期製作チームC\SimplSample015\media\Shaders\VSPCStatic.cso
C:\Users\小國\Documents\2016後期製作チームC\SimplSample015\media\Shaders\VSPCTInstance.cso
C:\Users\小國\Documents\2016後期製作チームC\SimplSample015\media\Shaders\VSPCTSprite.cso
C:\Users\小國\Documents\2016後期製作チームC\SimplSample015\media\Shaders\VSPCTStatic.cso
C:\Users\小國\Documents\2016後期製作チームC\SimplSample015\media\Shaders\VSPNTStatic.cso
C:\Users\小國\Documents\2016後期製作チームC\SimplSample015\media\Shaders\VSPNTStaticShadow.cso
C:\Users\小國\Documents\2016後期製作チームC\SimplSample015\media\Shaders\VSPTSprite.cso
C:\Users\小國\Documents\2016後期製作チームC\SimplSample015\media\Shaders\VSShadowmap.cso
C:\Users\小國\Documents\2016後期製作チームC\SimplSample015\media\Shaders\VSShadowmapBone.cso
