^C:\USERS\小國\DOCUMENTS\2016後期製作チームC\SIMPLSAMPLE015\BASECROSSDX11\STDAFX.CPP
C:\USERS\小國\DOCUMENTS\2016後期製作チームC\SIMPLSAMPLE015\TEMP\DX11\DEBUG\BASECROSSDX11.PCH
C:\USERS\小國\DOCUMENTS\2016後期製作チームC\SIMPLSAMPLE015\TEMP\DX11\DEBUG\VC140.PDB
C:\USERS\小國\DOCUMENTS\2016後期製作チームC\SIMPLSAMPLE015\TEMP\DX11\DEBUG\VC140.IDB
C:\USERS\小國\DOCUMENTS\2016後期製作チームC\SIMPLSAMPLE015\TEMP\DX11\DEBUG\STDAFX.OBJ
^C:\USERS\小國\DOCUMENTS\2016後期製作チームC\LIBS\BASELIB\DX11LIB\DEVICERESOURCES.CPP|C:\USERS\小國\DOCUMENTS\2016後期製作チームC\LIBS\BASELIB\DX11LIB\VERTEXHELPER.CPP|C:\USERS\小國\DOCUMENTS\2016後期製作チームC\LIBS\BASELIB\DXLIB\APP.CPP|C:\USERS\小國\DOCUMENTS\2016後期製作チームC\LIBS\BASELIB\DXLIB\BASEHELPER.CPP|C:\USERS\小國\DOCUMENTS\2016後期製作チームC\LIBS\BASELIB\DXLIB\MESHHELPER.CPP|C:\USERS\小國\DOCUMENTS\2016後期製作チームC\LIBS\BASELIB\DXLIB\XMLDOC.CPP|C:\USERS\小國\DOCUMENTS\2016後期製作チームC\SIMPLSAMPLE015\BASECROSSDX11\CHARACTER.CPP|C:\USERS\小國\DOCUMENTS\2016後期製作チームC\SIMPLSAMPLE015\BASECROSSDX11\COMMON\ACTION.CPP|C:\USERS\小國\DOCUMENTS\2016後期製作チームC\SIMPLSAMPLE015\BASECROSSDX11\COMMON\COLLISION.CPP|C:\USERS\小國\DOCUMENTS\2016後期製作チームC\SIMPLSAMPLE015\BASECROSSDX11\COMMON\COMPONENTS.CPP|C:\USERS\小國\DOCUMENTS\2016後期製作チームC\SIMPLSAMPLE015\BASECROSSDX11\COMMON\DRAWCOMPONENTS.CPP|C:\USERS\小國\DOCUMENTS\2016後期製作チームC\SIMPLSAMPLE015\BASECROSSDX11\COMMON\GAMEOBJECT.CPP|C:\USERS\小國\DOCUMENTS\2016後期製作チームC\SIMPLSAMPLE015\BASECROSSDX11\COMMON\GRAVITY.CPP|C:\USERS\小國\DOCUMENTS\2016後期製作チームC\SIMPLSAMPLE015\BASECROSSDX11\COMMON\RIGIDBODY.CPP|C:\USERS\小國\DOCUMENTS\2016後期製作チームC\SIMPLSAMPLE015\BASECROSSDX11\COMMON\SHAREDRESOURCES.CPP|C:\USERS\小國\DOCUMENTS\2016後期製作チームC\SIMPLSAMPLE015\BASECROSSDX11\COMMON\STRINGCOMPONENTS.CPP|C:\USERS\小國\DOCUMENTS\2016後期製作チームC\SIMPLSAMPLE015\BASECROSSDX11\DOG.CPP|C:\USERS\小國\DOCUMENTS\2016後期製作チームC\SIMPLSAMPLE015\BASECROSSDX11\GAMESTAGE.CPP|C:\USERS\小國\DOCUMENTS\2016後期製作チームC\SIMPLSAMPLE015\BASECROSSDX11\PLAYER.CPP|C:\USERS\小國\DOCUMENTS\2016後期製作チームC\SIMPLSAMPLE015\BASECROSSDX11\PROJECTSHADER.CPP|C:\USERS\小國\DOCUMENTS\2016後期製作チームC\SIMPLSAMPLE015\BASECROSSDX11\SCENE.CPP|C:\USERS\小國\DOCUMENTS\2016後期製作チームC\SIMPLSAMPLE015\BASECROSSDX11\WINMAIN.CPP
C:\USERS\小國\DOCUMENTS\2016後期製作チームC\SIMPLSAMPLE015\TEMP\DX11\DEBUG\VC140.PDB
C:\USERS\小國\DOCUMENTS\2016後期製作チームC\SIMPLSAMPLE015\TEMP\DX11\DEBUG\VC140.IDB
C:\USERS\小國\DOCUMENTS\2016後期製作チームC\SIMPLSAMPLE015\TEMP\DX11\DEBUG\APP.OBJ
C:\USERS\小國\DOCUMENTS\2016後期製作チームC\SIMPLSAMPLE015\TEMP\DX11\DEBUG\BASEHELPER.OBJ
C:\USERS\小國\DOCUMENTS\2016後期製作チームC\SIMPLSAMPLE015\TEMP\DX11\DEBUG\MESHHELPER.OBJ
C:\USERS\小國\DOCUMENTS\2016後期製作チームC\SIMPLSAMPLE015\TEMP\DX11\DEBUG\XMLDOC.OBJ
C:\USERS\小國\DOCUMENTS\2016後期製作チームC\SIMPLSAMPLE015\TEMP\DX11\DEBUG\CHARACTER.OBJ
C:\USERS\小國\DOCUMENTS\2016後期製作チームC\SIMPLSAMPLE015\TEMP\DX11\DEBUG\ACTION.OBJ
C:\USERS\小國\DOCUMENTS\2016後期製作チームC\SIMPLSAMPLE015\TEMP\DX11\DEBUG\COLLISION.OBJ
C:\USERS\小國\DOCUMENTS\2016後期製作チームC\SIMPLSAMPLE015\TEMP\DX11\DEBUG\COMPONENTS.OBJ
C:\USERS\小國\DOCUMENTS\2016後期製作チームC\SIMPLSAMPLE015\TEMP\DX11\DEBUG\DRAWCOMPONENTS.OBJ
C:\USERS\小國\DOCUMENTS\2016後期製作チームC\SIMPLSAMPLE015\TEMP\DX11\DEBUG\GAMEOBJECT.OBJ
C:\USERS\小國\DOCUMENTS\2016後期製作チームC\SIMPLSAMPLE015\TEMP\DX11\DEBUG\GRAVITY.OBJ
C:\USERS\小國\DOCUMENTS\2016後期製作チームC\SIMPLSAMPLE015\TEMP\DX11\DEBUG\RIGIDBODY.OBJ
C:\USERS\小國\DOCUMENTS\2016後期製作チームC\SIMPLSAMPLE015\TEMP\DX11\DEBUG\SHAREDRESOURCES.OBJ
C:\USERS\小國\DOCUMENTS\2016後期製作チームC\SIMPLSAMPLE015\TEMP\DX11\DEBUG\STRINGCOMPONENTS.OBJ
C:\USERS\小國\DOCUMENTS\2016後期製作チームC\SIMPLSAMPLE015\TEMP\DX11\DEBUG\GAMESTAGE.OBJ
C:\USERS\小國\DOCUMENTS\2016後期製作チームC\SIMPLSAMPLE015\TEMP\DX11\DEBUG\PLAYER.OBJ
C:\USERS\小國\DOCUMENTS\2016後期製作チームC\SIMPLSAMPLE015\TEMP\DX11\DEBUG\PROJECTSHADER.OBJ
C:\USERS\小國\DOCUMENTS\2016後期製作チームC\SIMPLSAMPLE015\TEMP\DX11\DEBUG\SCENE.OBJ
C:\USERS\小國\DOCUMENTS\2016後期製作チームC\SIMPLSAMPLE015\TEMP\DX11\DEBUG\DOG.OBJ
C:\USERS\小國\DOCUMENTS\2016後期製作チームC\SIMPLSAMPLE015\TEMP\DX11\DEBUG\WINMAIN.OBJ
C:\USERS\小國\DOCUMENTS\2016後期製作チームC\SIMPLSAMPLE015\TEMP\DX11\DEBUG\DEVICERESOURCES.OBJ
C:\USERS\小國\DOCUMENTS\2016後期製作チームC\SIMPLSAMPLE015\TEMP\DX11\DEBUG\VERTEXHELPER.OBJ
^C:\USERS\小國\DOCUMENTS\2016後期製作チームC\LIBS\BASELIB\DX11LIB\DEVICERESOURCES.CPP
C:\USERS\小國\DOCUMENTS\2016後期製作チームC\SIMPLSAMPLE015\TEMP\DX11\DEBUG\VC140.PDB
^C:\USERS\小國\DOCUMENTS\2016後期製作チームC\LIBS\BASELIB\DX11LIB\VERTEXHELPER.CPP
C:\USERS\小國\DOCUMENTS\2016後期製作チームC\SIMPLSAMPLE015\TEMP\DX11\DEBUG\VC140.PDB
^C:\USERS\小國\DOCUMENTS\2016後期製作チームC\LIBS\BASELIB\DXLIB\APP.CPP
C:\USERS\小國\DOCUMENTS\2016後期製作チームC\SIMPLSAMPLE015\TEMP\DX11\DEBUG\VC140.PDB
^C:\USERS\小國\DOCUMENTS\2016後期製作チームC\LIBS\BASELIB\DXLIB\BASEHELPER.CPP
C:\USERS\小國\DOCUMENTS\2016後期製作チームC\SIMPLSAMPLE015\TEMP\DX11\DEBUG\VC140.PDB
^C:\USERS\小國\DOCUMENTS\2016後期製作チームC\LIBS\BASELIB\DXLIB\MESHHELPER.CPP
C:\USERS\小國\DOCUMENTS\2016後期製作チームC\SIMPLSAMPLE015\TEMP\DX11\DEBUG\VC140.PDB
^C:\USERS\小國\DOCUMENTS\2016後期製作チームC\LIBS\BASELIB\DXLIB\XMLDOC.CPP
C:\USERS\小國\DOCUMENTS\2016後期製作チームC\SIMPLSAMPLE015\TEMP\DX11\DEBUG\VC140.PDB
^C:\USERS\小國\DOCUMENTS\2016後期製作チームC\SIMPLSAMPLE015\BASECROSSDX11\CHARACTER.CPP
C:\USERS\小國\DOCUMENTS\2016後期製作チームC\SIMPLSAMPLE015\TEMP\DX11\DEBUG\VC140.PDB
^C:\USERS\小國\DOCUMENTS\2016後期製作チームC\SIMPLSAMPLE015\BASECROSSDX11\COMMON\ACTION.CPP
C:\USERS\小國\DOCUMENTS\2016後期製作チームC\SIMPLSAMPLE015\TEMP\DX11\DEBUG\VC140.PDB
^C:\USERS\小國\DOCUMENTS\2016後期製作チームC\SIMPLSAMPLE015\BASECROSSDX11\COMMON\COLLISION.CPP
C:\USERS\小國\DOCUMENTS\2016後期製作チームC\SIMPLSAMPLE015\TEMP\DX11\DEBUG\VC140.PDB
^C:\USERS\小國\DOCUMENTS\2016後期製作チームC\SIMPLSAMPLE015\BASECROSSDX11\COMMON\COMPONENTS.CPP
C:\USERS\小國\DOCUMENTS\2016後期製作チームC\SIMPLSAMPLE015\TEMP\DX11\DEBUG\VC140.PDB
^C:\USERS\小國\DOCUMENTS\2016後期製作チームC\SIMPLSAMPLE015\BASECROSSDX11\COMMON\DRAWCOMPONENTS.CPP
C:\USERS\小國\DOCUMENTS\2016後期製作チームC\SIMPLSAMPLE015\TEMP\DX11\DEBUG\VC140.PDB
^C:\USERS\小國\DOCUMENTS\2016後期製作チームC\SIMPLSAMPLE015\BASECROSSDX11\COMMON\GAMEOBJECT.CPP
C:\USERS\小國\DOCUMENTS\2016後期製作チームC\SIMPLSAMPLE015\TEMP\DX11\DEBUG\VC140.PDB
^C:\USERS\小國\DOCUMENTS\2016後期製作チームC\SIMPLSAMPLE015\BASECROSSDX11\COMMON\GRAVITY.CPP
C:\USERS\小國\DOCUMENTS\2016後期製作チームC\SIMPLSAMPLE015\TEMP\DX11\DEBUG\VC140.PDB
^C:\USERS\小國\DOCUMENTS\2016後期製作チームC\SIMPLSAMPLE015\BASECROSSDX11\COMMON\RIGIDBODY.CPP
C:\USERS\小國\DOCUMENTS\2016後期製作チームC\SIMPLSAMPLE015\TEMP\DX11\DEBUG\VC140.PDB
^C:\USERS\小國\DOCUMENTS\2016後期製作チームC\SIMPLSAMPLE015\BASECROSSDX11\COMMON\SHAREDRESOURCES.CPP
C:\USERS\小國\DOCUMENTS\2016後期製作チームC\SIMPLSAMPLE015\TEMP\DX11\DEBUG\VC140.PDB
^C:\USERS\小國\DOCUMENTS\2016後期製作チームC\SIMPLSAMPLE015\BASECROSSDX11\COMMON\STRINGCOMPONENTS.CPP
C:\USERS\小國\DOCUMENTS\2016後期製作チームC\SIMPLSAMPLE015\TEMP\DX11\DEBUG\VC140.PDB
^C:\USERS\小國\DOCUMENTS\2016後期製作チームC\SIMPLSAMPLE015\BASECROSSDX11\GAMESTAGE.CPP
C:\USERS\小國\DOCUMENTS\2016後期製作チームC\SIMPLSAMPLE015\TEMP\DX11\DEBUG\VC140.PDB
^C:\USERS\小國\DOCUMENTS\2016後期製作チームC\SIMPLSAMPLE015\BASECROSSDX11\PLAYER.CPP
C:\USERS\小國\DOCUMENTS\2016後期製作チームC\SIMPLSAMPLE015\TEMP\DX11\DEBUG\VC140.PDB
^C:\USERS\小國\DOCUMENTS\2016後期製作チームC\SIMPLSAMPLE015\BASECROSSDX11\PROJECTSHADER.CPP
C:\USERS\小國\DOCUMENTS\2016後期製作チームC\SIMPLSAMPLE015\TEMP\DX11\DEBUG\VC140.PDB
^C:\USERS\小國\DOCUMENTS\2016後期製作チームC\SIMPLSAMPLE015\BASECROSSDX11\SCENE.CPP
C:\USERS\小國\DOCUMENTS\2016後期製作チームC\SIMPLSAMPLE015\TEMP\DX11\DEBUG\VC140.PDB
^C:\USERS\小國\DOCUMENTS\2016後期製作チームC\SIMPLSAMPLE015\BASECROSSDX11\DOG.CPP
C:\USERS\小國\DOCUMENTS\2016後期製作チームC\SIMPLSAMPLE015\TEMP\DX11\DEBUG\VC140.PDB
^C:\USERS\小國\DOCUMENTS\2016後期製作チームC\SIMPLSAMPLE015\BASECROSSDX11\WINMAIN.CPP
C:\USERS\小國\DOCUMENTS\2016後期製作チームC\SIMPLSAMPLE015\TEMP\DX11\DEBUG\VC140.PDB
