^C:\USERS\小國\DOCUMENTS\2016後期製作チームC\SIMPLSAMPLE015\DXSHARED\SHADERS\PSPCSPRITE.HLSL
/nologo /E"main" /T ps_5_0 /Fo "C:\Users\小國\Documents\2016後期製作チームC\SimplSample015\media\Shaders\PSPCSprite.cso" /Od /Zi C:\USERS\小國\DOCUMENTS\2016後期製作チームC\SIMPLSAMPLE015\DXSHARED\SHADERS\PSPCSPRITE.HLSL
^C:\USERS\小國\DOCUMENTS\2016後期製作チームC\SIMPLSAMPLE015\DXSHARED\SHADERS\PSPCSTATIC.HLSL
/nologo /E"main" /T ps_5_0 /Fo "C:\Users\小國\Documents\2016後期製作チームC\SimplSample015\media\Shaders\PSPCStatic.cso" /Od /Zi C:\USERS\小國\DOCUMENTS\2016後期製作チームC\SIMPLSAMPLE015\DXSHARED\SHADERS\PSPCSTATIC.HLSL
^C:\USERS\小國\DOCUMENTS\2016後期製作チームC\SIMPLSAMPLE015\DXSHARED\SHADERS\PSPCTSPRITE.HLSL
/nologo /E"main" /T ps_5_0 /Fo "C:\Users\小國\Documents\2016後期製作チームC\SimplSample015\media\Shaders\PSPCTSprite.cso" /Od /Zi C:\USERS\小國\DOCUMENTS\2016後期製作チームC\SIMPLSAMPLE015\DXSHARED\SHADERS\PSPCTSPRITE.HLSL
^C:\USERS\小國\DOCUMENTS\2016後期製作チームC\SIMPLSAMPLE015\DXSHARED\SHADERS\PSPCTSTATIC.HLSL
/nologo /E"main" /T ps_5_0 /Fo "C:\Users\小國\Documents\2016後期製作チームC\SimplSample015\media\Shaders\PSPCTStatic.cso" /Od /Zi C:\USERS\小國\DOCUMENTS\2016後期製作チームC\SIMPLSAMPLE015\DXSHARED\SHADERS\PSPCTSTATIC.HLSL
^C:\USERS\小國\DOCUMENTS\2016後期製作チームC\SIMPLSAMPLE015\DXSHARED\SHADERS\PSPNTSTATIC.HLSL
/nologo /E"main" /T ps_5_0 /Fo "C:\Users\小國\Documents\2016後期製作チームC\SimplSample015\media\Shaders\PSPNTStatic.cso" /Od /Zi C:\USERS\小國\DOCUMENTS\2016後期製作チームC\SIMPLSAMPLE015\DXSHARED\SHADERS\PSPNTSTATIC.HLSL
^C:\USERS\小國\DOCUMENTS\2016後期製作チームC\SIMPLSAMPLE015\DXSHARED\SHADERS\PSPNTSTATICSHADOW.HLSL
/nologo /E"main" /T ps_5_0 /Fo "C:\Users\小國\Documents\2016後期製作チームC\SimplSample015\media\Shaders\PSPNTStaticShadow.cso" /Od /Zi C:\USERS\小國\DOCUMENTS\2016後期製作チームC\SIMPLSAMPLE015\DXSHARED\SHADERS\PSPNTSTATICSHADOW.HLSL
^C:\USERS\小國\DOCUMENTS\2016後期製作チームC\SIMPLSAMPLE015\DXSHARED\SHADERS\PSPNTSTATICSHADOW2.HLSL
/nologo /E"main" /T ps_5_0 /Fo "C:\Users\小國\Documents\2016後期製作チームC\SimplSample015\media\Shaders\PSPNTStaticShadow2.cso" /Od /Zi C:\USERS\小國\DOCUMENTS\2016後期製作チームC\SIMPLSAMPLE015\DXSHARED\SHADERS\PSPNTSTATICSHADOW2.HLSL
^C:\USERS\小國\DOCUMENTS\2016後期製作チームC\SIMPLSAMPLE015\DXSHARED\SHADERS\PSPTSPRITE.HLSL
/nologo /E"main" /T ps_5_0 /Fo "C:\Users\小國\Documents\2016後期製作チームC\SimplSample015\media\Shaders\PSPTSprite.cso" /Od /Zi C:\USERS\小國\DOCUMENTS\2016後期製作チームC\SIMPLSAMPLE015\DXSHARED\SHADERS\PSPTSPRITE.HLSL
^C:\USERS\小國\DOCUMENTS\2016後期製作チームC\SIMPLSAMPLE015\DXSHARED\SHADERS\VSPCSPRITE.HLSL
/nologo /E"main" /T vs_5_0 /Fo "C:\Users\小國\Documents\2016後期製作チームC\SimplSample015\media\Shaders\VSPCSprite.cso" /Od /Zi C:\USERS\小國\DOCUMENTS\2016後期製作チームC\SIMPLSAMPLE015\DXSHARED\SHADERS\VSPCSPRITE.HLSL
^C:\USERS\小國\DOCUMENTS\2016後期製作チームC\SIMPLSAMPLE015\DXSHARED\SHADERS\VSPCSTATIC.HLSL
/nologo /E"main" /T vs_5_0 /Fo "C:\Users\小國\Documents\2016後期製作チームC\SimplSample015\media\Shaders\VSPCStatic.cso" /Od /Zi C:\USERS\小國\DOCUMENTS\2016後期製作チームC\SIMPLSAMPLE015\DXSHARED\SHADERS\VSPCSTATIC.HLSL
^C:\USERS\小國\DOCUMENTS\2016後期製作チームC\SIMPLSAMPLE015\DXSHARED\SHADERS\VSPCTINSTANCE.HLSL
/nologo /E"main" /T vs_5_0 /Fo "C:\Users\小國\Documents\2016後期製作チームC\SimplSample015\media\Shaders\VSPCTInstance.cso" /Od /Zi C:\USERS\小國\DOCUMENTS\2016後期製作チームC\SIMPLSAMPLE015\DXSHARED\SHADERS\VSPCTINSTANCE.HLSL
^C:\USERS\小國\DOCUMENTS\2016後期製作チームC\SIMPLSAMPLE015\DXSHARED\SHADERS\VSPCTSPRITE.HLSL
/nologo /E"main" /T vs_5_0 /Fo "C:\Users\小國\Documents\2016後期製作チームC\SimplSample015\media\Shaders\VSPCTSprite.cso" /Od /Zi C:\USERS\小國\DOCUMENTS\2016後期製作チームC\SIMPLSAMPLE015\DXSHARED\SHADERS\VSPCTSPRITE.HLSL
^C:\USERS\小國\DOCUMENTS\2016後期製作チームC\SIMPLSAMPLE015\DXSHARED\SHADERS\VSPCTSTATIC.HLSL
/nologo /E"main" /T vs_5_0 /Fo "C:\Users\小國\Documents\2016後期製作チームC\SimplSample015\media\Shaders\VSPCTStatic.cso" /Od /Zi C:\USERS\小國\DOCUMENTS\2016後期製作チームC\SIMPLSAMPLE015\DXSHARED\SHADERS\VSPCTSTATIC.HLSL
^C:\USERS\小國\DOCUMENTS\2016後期製作チームC\SIMPLSAMPLE015\DXSHARED\SHADERS\VSPNTSTATIC.HLSL
/nologo /E"main" /T vs_5_0 /Fo "C:\Users\小國\Documents\2016後期製作チームC\SimplSample015\media\Shaders\VSPNTStatic.cso" /Od /Zi C:\USERS\小國\DOCUMENTS\2016後期製作チームC\SIMPLSAMPLE015\DXSHARED\SHADERS\VSPNTSTATIC.HLSL
^C:\USERS\小國\DOCUMENTS\2016後期製作チームC\SIMPLSAMPLE015\DXSHARED\SHADERS\VSPNTSTATICSHADOW.HLSL
/nologo /E"main" /T vs_5_0 /Fo "C:\Users\小國\Documents\2016後期製作チームC\SimplSample015\media\Shaders\VSPNTStaticShadow.cso" /Od /Zi C:\USERS\小國\DOCUMENTS\2016後期製作チームC\SIMPLSAMPLE015\DXSHARED\SHADERS\VSPNTSTATICSHADOW.HLSL
^C:\USERS\小國\DOCUMENTS\2016後期製作チームC\SIMPLSAMPLE015\DXSHARED\SHADERS\VSPTSPRITE.HLSL
/nologo /E"main" /T vs_5_0 /Fo "C:\Users\小國\Documents\2016後期製作チームC\SimplSample015\media\Shaders\VSPTSprite.cso" /Od /Zi C:\USERS\小國\DOCUMENTS\2016後期製作チームC\SIMPLSAMPLE015\DXSHARED\SHADERS\VSPTSPRITE.HLSL
^C:\USERS\小國\DOCUMENTS\2016後期製作チームC\SIMPLSAMPLE015\DXSHARED\SHADERS\VSSHADOWMAP.HLSL
/nologo /E"main" /T vs_5_0 /Fo "C:\Users\小國\Documents\2016後期製作チームC\SimplSample015\media\Shaders\VSShadowmap.cso" /Od /Zi C:\USERS\小國\DOCUMENTS\2016後期製作チームC\SIMPLSAMPLE015\DXSHARED\SHADERS\VSSHADOWMAP.HLSL
^C:\USERS\小國\DOCUMENTS\2016後期製作チームC\SIMPLSAMPLE015\DXSHARED\SHADERS\VSSHADOWMAPBONE.HLSL
/nologo /E"main" /T vs_5_0 /Fo "C:\Users\小國\Documents\2016後期製作チームC\SimplSample015\media\Shaders\VSShadowmapBone.cso" /Od /Zi C:\USERS\小國\DOCUMENTS\2016後期製作チームC\SIMPLSAMPLE015\DXSHARED\SHADERS\VSSHADOWMAPBONE.HLSL
